{"page":500,"total_results":10000,"total_pages":500,"results":[{"popularity":1.4,"vote_count":0,"video":false,"poster_path":"\/qZgrVwMQED03urAg4EL4Kow2hqJ.jpg","id":743089,"adult":false,"backdrop_path":"\/nLRXOEpqpV2URIkbzZepVGBRMwh.jpg","original_language":"en","original_title":"Dr. Bezbarua","genre_ids":[18],"title":"Dr. Bezbarua","vote_average":0,"overview":"Dr. Bezbarua is a 1969 Assamese language thriller film, the first film of this genre in the language, directed by Brajen Barua and produced by Rangghar Cine Productions.","release_date":"2069-02-28"},{"popularity":5.616,"vote_count":0,"video":false,"poster_path":null,"id":393209,"adult":false,"backdrop_path":null,"original_language":"en","original_title":"Avatar 5","genre_ids":[28,12,14,878],"title":"Avatar 5","vote_average":0,"overview":"","release_date":"2028-12-21"},{"popularity":0.6,"vote_count":0,"video":false,"poster_path":null,"id":748865,"adult":false,"backdrop_path":null,"original_language":"en","original_title":"Oh The Places You'll Go!","genre_ids":[12,16],"title":"Oh The Places You'll Go!","vote_average":0,"overview":"A kid who seeks a lifetime of adventure","release_date":"2027-01-01"},{"popularity":6.993,"vote_count":0,"video":false,"poster_path":null,"id":216527,"adult":false,"backdrop_path":null,"original_language":"en","original_title":"Avatar 4","genre_ids":[28,12,14,878],"title":"Avatar 4","vote_average":0,"overview":"","release_date":"2026-12-17"},{"popularity":0,"vote_count":0,"video":false,"poster_path":null,"id":748868,"adult":false,"backdrop_path":null,"original_language":"en","original_title":"Thing One And Thing Two","genre_ids":[],"title":"Thing One And Thing Two","vote_average":0,"overview":"A spin-off of The Cat In The Hat (2024) focused on the titular twin mischief makers","release_date":"2026-01-01"},{"popularity":0.6,"id":531229,"video":false,"vote_count":1,"vote_average":0,"title":"Son Göktürk","release_date":"2025-01-01","original_language":"tr","original_title":"Son Göktürk","genre_ids":[],"backdrop_path":"\/yZfia37VeZqqoxzq5gKgkTKWbRc.jpg","adult":false,"overview":"","poster_path":"\/iuk8tKnme2qjFB0wHTaCqJbGuhf.jpg"},{"popularity":9.893,"vote_count":0,"video":false,"poster_path":null,"id":83533,"adult":false,"backdrop_path":null,"original_language":"en","original_title":"Avatar 3","genre_ids":[28,12,18,14,878],"title":"Avatar 3","vote_average":0,"overview":"","release_date":"2024-12-19"},{"popularity":0.6,"id":753070,"video":false,"vote_count":0,"vote_average":0,"title":"The Jai Patel Story","release_date":"2024-05-09","original_language":"en","original_title":"The Jai Patel Story","genre_ids":[14,35],"backdrop_path":null,"adult":false,"overview":"Chronicling the life of the walking enigma: Jai Patel","poster_path":"\/vMizSO9SyO3GneBJpPtV1cnA1EU.jpg"},{"popularity":0.6,"id":750291,"video":false,"vote_count":0,"vote_average":0,"title":"Taha Ki Aag - The Ultimate Bakrich*d","release_date":"2023-06-13","original_language":"ur","original_title":"Taha Ki Aag - The Ultimate Goat Slayer","genre_ids":[53,10749,18],"backdrop_path":null,"adult":false,"overview":"Taha, a depressed teen, who is tired of simping for girls, now falls in love with his pet goat","poster_path":"\/3LsmQTZRW5cbljaTHdZpgGPQfSe.jpg"},{"popularity":0,"vote_count":0,"video":false,"poster_path":null,"id":748867,"adult":false,"backdrop_path":null,"original_language":"en","original_title":"The Cat In The Hat","genre_ids":[16],"title":"The Cat In The Hat","vote_average":0,"overview":"Poor Sally and her brother. It's cold and wet and they're stuck in the house with nothing to do . . . until a giant cat in a hat shows up, transforming the dull day into a madcap adventure and almost wrecking the place in the process","release_date":"2024-01-01"},{"popularity":0.6,"vote_count":0,"video":false,"poster_path":null,"id":614181,"adult":false,"backdrop_path":null,"original_language":"hi","original_title":"Shaadi No. 1","genre_ids":[],"title":"Shaadi No. 1","vote_average":0,"overview":"Official remake of film Shaadi No. 1 (2005)","release_date":"2023-12-31"},{"popularity":5.824,"id":662885,"video":false,"vote_count":0,"vote_average":0,"title":"Untitled Kevin Hart\/Malcolm D. Lee Action-Comedy","release_date":"2023-12-31","original_language":"en","original_title":"Untitled Kevin Hart\/Malcolm D. Lee Action-Comedy","genre_ids":[28,35],"backdrop_path":null,"adult":false,"overview":"Plot details are being kept under wraps","poster_path":null},{"popularity":3.14,"vote_count":0,"video":false,"poster_path":null,"id":546330,"adult":false,"backdrop_path":null,"original_language":"en","original_title":"McClane","genre_ids":[28],"title":"McClane","vote_average":0,"overview":"Prequel to 1988 movie 'Die Hard' and based on 'Die Hard: Year One' comic book .","release_date":"2023-12-31"},{"popularity":2.028,"vote_count":0,"video":false,"poster_path":null,"id":626741,"adult":false,"backdrop_path":null,"original_language":"en","original_title":"G.I. Joe: Ever Vigilant","genre_ids":[28,12,878],"title":"G.I. Joe: Ever Vigilant","vote_average":0,"overview":"The GI Joe force is reinstated for a confrontation when the Cobra terrorists acquire a deadly new weapon.","release_date":"2023-12-31"},{"popularity":7.278,"id":532805,"video":false,"vote_count":0,"vote_average":0,"title":"xXx 4","release_date":"2023-12-31","original_language":"en","original_title":"xXx 4","genre_ids":[28,12,53],"backdrop_path":null,"adult":false,"overview":"Plot unknown","poster_path":null},{"popularity":1.448,"vote_count":0,"video":false,"poster_path":null,"id":501917,"adult":false,"backdrop_path":null,"original_language":"en","original_title":"The Kingkiller Chronicle","genre_ids":[12,14],"title":"The Kingkiller Chronicle","vote_average":0,"overview":"Feature film based on Patrick Rothfuss's book about a young man who grows up to become a notorious magician.","release_date":"2023-12-31"},{"popularity":4.521,"vote_count":0,"video":false,"poster_path":"\/znqx43HZL3VrpIkTgMJkl9cJb2c.jpg","id":481881,"adult":false,"backdrop_path":null,"original_language":"en","original_title":"Machete Kills Again... in Space","genre_ids":[28,35,878,53],"title":"Machete Kills Again... in Space","vote_average":0,"overview":"Voz flees to outer space after attempting to start a nuclear war on Earth and there is only one man who the President can trust to take Voz down: Machete.","release_date":"2023-12-30"},{"popularity":0.6,"vote_count":0,"video":false,"poster_path":null,"id":746457,"adult":false,"backdrop_path":null,"original_language":"en","original_title":"Untitled Disney Live Action","genre_ids":[],"title":"Untitled Disney Live Action","vote_average":0,"overview":"","release_date":"2023-12-15"},{"popularity":0.6,"vote_count":0,"video":false,"poster_path":null,"id":727270,"adult":false,"backdrop_path":null,"original_language":"en","original_title":"Untitled Disney Animation Project (2)","genre_ids":[],"title":"Untitled Disney Animation Project (2)","vote_average":0,"overview":"Untitled movie for 2023","release_date":"2023-11-22"},{"popularity":0.6,"vote_count":0,"video":false,"poster_path":null,"id":746458,"adult":false,"backdrop_path":null,"original_language":"en","original_title":"Untitled Disney Animation","genre_ids":[],"title":"Untitled Disney Animation","vote_average":0,"overview":"","release_date":"2023-11-22"}]}