{"page":1,"total_results":4477,"total_pages":224,"results":[{"popularity":11.466,"vote_count":914,"video":false,"poster_path":"\/pci1ArYW7oJ2eyTo2NMYEKHHiCP.jpg","id":724089,"adult":false,"backdrop_path":"\/jtAI6OJIWLWiRItNSZoWjrsUtmi.jpg","original_language":"en","original_title":"Gabriel's Inferno Part II","genre_ids":[10749],"title":"Gabriel's Inferno Part II","vote_average":8.9,"overview":"Professor Gabriel Emerson finally learns the truth about Julia Mitchell's identity, but his realization comes a moment too late. Julia is done waiting for the well-respected Dante specialist to remember her and wants nothing more to do with him. Can Gabriel win back her heart before she finds love in another's arms?","release_date":"2020-07-31"},{"popularity":12.693,"vote_count":1518,"video":false,"poster_path":"\/oyG9TL7FcRP4EZ9Vid6uKzwdndz.jpg","id":696374,"adult":false,"backdrop_path":"\/969BfPHGJcjg2aUv60g5uiiXFzf.jpg","original_language":"en","original_title":"Gabriel's Inferno","genre_ids":[10749],"title":"Gabriel's Inferno","vote_average":8.8,"overview":"An intriguing and sinful exploration of seduction, forbidden love, and redemption, Gabriel's Inferno is a captivating and wildly passionate tale of one man's escape from his own personal hell as he tries to earn the impossible--forgiveness and love.","release_date":"2020-05-29"},{"popularity":50.267,"vote_count":17427,"video":false,"poster_path":"\/5KCVkau1HEl7ZzfPsKAPM0sMiKc.jpg","id":278,"adult":false,"backdrop_path":"\/iNh3BivHyg5sQRPP1KOkzguEX0H.jpg","original_language":"en","original_title":"The Shawshank Redemption","genre_ids":[18,80],"title":"The Shawshank Redemption","vote_average":8.7,"overview":"Framed in the 1940s for the double murder of his wife and her lover, upstanding banker Andy Dufresne begins a new life at the Shawshank prison, where he puts his accounting skills to work for an amoral warden. During his long stretch in prison, Dufresne comes to be admired by the other inmates -- including an older prisoner named Red -- for his integrity and unquenchable sense of hope.","release_date":"1994-09-23"},{"popularity":15.259,"vote_count":2417,"video":false,"poster_path":"\/2CAL2433ZeIihfX1Hb2139CX0pW.jpg","id":19404,"adult":false,"backdrop_path":"\/svYzz6A6xleZv5toTLAhigXd1DX.jpg","original_language":"hi","original_title":"दिलवाले दुल्हनिया ले जायेंगे","genre_ids":[35,18,10749],"title":"Dilwale Dulhania Le Jayenge","vote_average":8.7,"overview":"Raj is a rich, carefree, happy-go-lucky second generation NRI. Simran is the daughter of Chaudhary Baldev Singh, who in spite of being an NRI is very strict about adherence to Indian values. Simran has left for India to be married to her childhood fiancé. Raj leaves for India with a mission at his hands, to claim his lady love under the noses of her whole family. Thus begins a saga.","release_date":"1995-10-20"},{"popularity":47.06,"vote_count":13186,"video":false,"poster_path":"\/3bhkrj58Vtu7enYsRolD1fZdja1.jpg","id":238,"adult":false,"backdrop_path":"\/rSPw7tgCH9c6NqICZef4kZjFOQ5.jpg","original_language":"en","original_title":"The Godfather","genre_ids":[18,80],"title":"The Godfather","vote_average":8.7,"overview":"Spanning the years 1945 to 1955, a chronicle of the fictional Italian-American Corleone crime family. When organized crime family patriarch, Vito Corleone barely survives an attempt on his life, his youngest son, Michael steps in to take care of the would-be killers, launching a campaign of bloody revenge.","release_date":"1972-03-14"},{"popularity":35.024,"id":424,"video":false,"vote_count":10494,"vote_average":8.6,"title":"Schindler's List","release_date":"1993-11-30","original_language":"en","original_title":"Schindler's List","genre_ids":[18,36,10752],"backdrop_path":"\/loRmRzQXZeqG78TqZuyvSlEQfZb.jpg","adult":false,"overview":"The true story of how businessman Oskar Schindler saved over a thousand Jewish lives from the Nazis while they worked as slaves in his factory during World War II.","poster_path":"\/c8Ass7acuOe4za6DhSattE359gr.jpg"},{"popularity":138.486,"vote_count":6555,"video":false,"poster_path":"\/q719jXXEzOoYaps6babgKnONONX.jpg","id":372058,"adult":false,"backdrop_path":"\/mMtUybQ6hL24FXo0F3Z4j2KG7kZ.jpg","original_language":"ja","original_title":"君の名は。","genre_ids":[10749,16,18],"title":"Your Name.","vote_average":8.6,"overview":"High schoolers Mitsuha and Taki are complete strangers living separate lives. But one night, they suddenly switch places. Mitsuha wakes up in Taki’s body, and he in hers. This bizarre occurrence continues to happen randomly, and the two must adjust their lives around each other.","release_date":"2016-08-26"},{"popularity":34.033,"vote_count":7823,"video":false,"poster_path":"\/hek3koDUyRQk7FIhPXsa6mT2Zc3.jpg","id":240,"adult":false,"backdrop_path":"\/poec6RqOKY9iSiIUmfyfPfiLtvB.jpg","original_language":"en","original_title":"The Godfather: Part II","genre_ids":[18,80],"title":"The Godfather: Part II","vote_average":8.6,"overview":"In the continuing saga of the Corleone crime family, a young Vito Corleone grows up in Sicily and in 1910s New York. In the 1950s, Michael Corleone attempts to expand the family business into Las Vegas, Hollywood and Cuba.","release_date":"1974-12-20"},{"popularity":61.577,"vote_count":10332,"video":false,"poster_path":"\/2TeJfUZMGolfDdW6DKhfIWqvq8y.jpg","id":129,"adult":false,"backdrop_path":"\/Ab8mkHmkYADjU7wQiOkia9BzGvS.jpg","original_language":"ja","original_title":"千と千尋の神隠し","genre_ids":[16,10751,14],"title":"Spirited Away","vote_average":8.5,"overview":"A young girl, Chihiro, becomes trapped in a strange new world of spirits. When her parents undergo a mysterious transformation, she must call upon the courage she never knew she had to free her family.","release_date":"2001-07-20"},{"popularity":119.784,"vote_count":9602,"video":false,"poster_path":"\/7IiTTgloJzvGI1TAYymCfbfl3vT.jpg","id":496243,"adult":false,"backdrop_path":"\/ApiBzeaa95TNYliSbQ8pJv4Fje7.jpg","original_language":"ko","original_title":"기생충","genre_ids":[35,53,18],"title":"Parasite","vote_average":8.5,"overview":"All unemployed, Ki-taek's family takes peculiar interest in the wealthy and glamorous Parks for their livelihood until they get entangled in an unexpected incident.","release_date":"2019-05-30"},{"popularity":43.657,"vote_count":11153,"video":false,"poster_path":"\/velWPhVMQeQKcxggNEU8YmIo52R.jpg","id":497,"adult":false,"backdrop_path":"\/5Nz25DPXfQaSpDgce42Y3kFg9G4.jpg","original_language":"en","original_title":"The Green Mile","genre_ids":[80,18,14],"title":"The Green Mile","vote_average":8.5,"overview":"A supernatural tale set on death row in a Southern prison, where gentle giant John Coffey possesses the mysterious power to heal people's ailments. When the cell block's head guard, Paul Edgecomb, recognizes Coffey's miraculous gift, he tries desperately to help stave off the condemned man's execution.","release_date":"1999-12-10"},{"popularity":45.911,"vote_count":19801,"video":false,"poster_path":"\/plnlrtBUULT0rh3Xsjmpubiso3L.jpg","id":680,"adult":false,"backdrop_path":"\/w7RDIgQM6bLT7JXtH4iUQd3Iwxm.jpg","original_language":"en","original_title":"Pulp Fiction","genre_ids":[53,80],"title":"Pulp Fiction","vote_average":8.5,"overview":"A burger-loving hit man, his philosophical partner, a drug-addled gangster's moll and a washed-up boxer converge in this sprawling, comedic crime caper. Their adventures unfurl in three stories that ingeniously trip back and forth in time.","release_date":"1994-09-10"},{"popularity":63.33,"id":122,"video":false,"vote_count":16464,"vote_average":8.5,"title":"The Lord of the Rings: The Return of the King","release_date":"2003-12-01","original_language":"en","original_title":"The Lord of the Rings: The Return of the King","genre_ids":[12,14,28],"backdrop_path":"\/9DeGfFIqjph5CBFVQrD6wv9S7rR.jpg","adult":false,"overview":"Aragorn is revealed as the heir to the ancient kings as he, Gandalf and the other members of the broken fellowship struggle to save Gondor from Sauron's forces. Meanwhile, Frodo and Sam take the ring closer to the heart of Mordor, the dark lord's realm.","poster_path":"\/rCzpDGLbOoPwLjy3OAm5NUPOTrC.jpg"},{"popularity":32.723,"id":637,"video":false,"vote_count":9413,"vote_average":8.5,"title":"Life Is Beautiful","release_date":"1997-12-20","original_language":"it","original_title":"La vita è bella","genre_ids":[35,18],"backdrop_path":"\/6aNKD81RHR1DqUUa8kOZ1TBY1Lp.jpg","adult":false,"overview":"A touching story of an Italian book seller of Jewish ancestry who lives in his own little fairy tale. His creative and happy life would come to an abrupt halt when his entire family is deported to a concentration camp during World War II. While locked up he tries to convince his son that the whole thing is just a game.","poster_path":"\/74hLDKjD5aGYOotO6esUVaeISa2.jpg"},{"popularity":63.918,"vote_count":23576,"video":false,"poster_path":"\/qJ2tW6WMUDux911r6m7haRef0WH.jpg","id":155,"adult":false,"backdrop_path":"\/hkBaDkMWbLaf8B1lsWsKX7Ew3Xq.jpg","original_language":"en","original_title":"The Dark Knight","genre_ids":[18,28,80,53],"title":"The Dark Knight","vote_average":8.5,"overview":"Batman raises the stakes in his war on crime. With the help of Lt. Jim Gordon and District Attorney Harvey Dent, Batman sets out to dismantle the remaining criminal organizations that plague the streets. The partnership proves to be effective, but they soon find themselves prey to a reign of chaos unleashed by a rising criminal mastermind known to the terrified citizens of Gotham as the Joker.","release_date":"2008-07-16"},{"popularity":42.323,"id":13,"video":false,"vote_count":19132,"vote_average":8.5,"title":"Forrest Gump","release_date":"1994-07-06","original_language":"en","original_title":"Forrest Gump","genre_ids":[35,18,10749],"backdrop_path":"\/7c9UVPPiTPltouxRVY6N9uugaVA.jpg","adult":false,"overview":"A man with a low IQ has accomplished great things in his life and been present during significant historic events—in each case, far exceeding what anyone imagined he could do. But despite all he has achieved, his one true love eludes him.","poster_path":"\/clolk7rB5lAjs41SD0Vt6IXYLMm.jpg"},{"popularity":25.369,"vote_count":5057,"video":false,"poster_path":"\/ppd84D2i9W8jXmsyInGyihiSyqz.jpg","id":389,"adult":false,"backdrop_path":"\/qqHQsStV6exghCM7zbObuYBiYxw.jpg","original_language":"en","original_title":"12 Angry Men","genre_ids":[18],"title":"12 Angry Men","vote_average":8.5,"overview":"The defense and the prosecution have rested and the jury is filing into the jury room to decide if a young Spanish-American is guilty or innocent of murdering his father. What begins as an open and shut case soon becomes a mini-drama of each of the jurors' prejudices and preconceptions about the trial, the accused, and each other.","release_date":"1957-04-10"},{"popularity":26.283,"id":311,"video":false,"vote_count":3248,"vote_average":8.5,"title":"Once Upon a Time in America","release_date":"1984-05-23","original_language":"en","original_title":"Once Upon a Time in America","genre_ids":[18,80],"backdrop_path":"\/z1s7ASlypXYGeMLoJ2Np4CpWdzd.jpg","adult":false,"overview":"A former Prohibition-era Jewish gangster returns to the Lower East Side of Manhattan over thirty years later, where he once again must confront the ghosts and regrets of his old life.","poster_path":"\/hBDHr3YihnuL46aeyEMhTchXkZP.jpg"},{"popularity":21.948,"vote_count":2572,"video":false,"poster_path":"\/8SRUfRUi6x4O68n0VCbDNRa6iGL.jpg","id":11216,"adult":false,"backdrop_path":"\/zoVeIgKzGJzpdG6Gwnr7iOYfIMU.jpg","original_language":"it","original_title":"Nuovo Cinema Paradiso","genre_ids":[18,10749],"title":"Cinema Paradiso","vote_average":8.4,"overview":"A filmmaker recalls his childhood, when he fell in love with the movies at his village's theater and formed a deep friendship with the theater's projectionist.","release_date":"1988-11-17"},{"popularity":57.138,"id":769,"video":false,"vote_count":8083,"vote_average":8.4,"title":"GoodFellas","release_date":"1990-09-12","original_language":"en","original_title":"GoodFellas","genre_ids":[18,80],"backdrop_path":"\/gILte6Zd7m1YneIr6MVhh30S9pr.jpg","adult":false,"overview":"The true story of Henry Hill, a half-Irish, half-Sicilian Brooklyn kid who is adopted by neighbourhood gangsters at an early age and climbs the ranks of a Mafia family under the guidance of Jimmy Conway.","poster_path":"\/6QMSLvU5ziIL2T6VrkaKzN2YkxK.jpg"}]}